<svg width="35" height="35" viewBox="0 0 35 35" fill="none" xmlns="http://www.w3.org/2000/svg">
<g clip-path="url(#clip0_1_897)">
<mask id="mask0_1_897" style="mask-type:luminance" maskUnits="userSpaceOnUse" x="0" y="0" width="35" height="35">
<path d="M0 0H35V35H0V0Z" fill="white"/>
</mask>
<g mask="url(#mask0_1_897)">
<path fill-rule="evenodd" clip-rule="evenodd" d="M35 17.5C35 27.1644 27.1644 35 17.5 35C7.83563 35 0 27.1644 0 17.5C0 7.83563 7.83563 0 17.5 0C27.1644 0 35 7.83563 35 17.5ZM8.75 23.625H21.875V14C21.875 13.6553 21.8071 13.3139 21.6752 12.9955C21.5433 12.677 21.3499 12.3876 21.1062 12.1438C20.8624 11.9001 20.573 11.7067 20.2545 11.5748C19.9361 11.4429 19.5947 11.375 19.25 11.375H6.125V21C6.125 21.6962 6.40156 22.3639 6.89384 22.8562C7.1376 23.0999 7.42698 23.2933 7.74546 23.4252C8.06394 23.5571 8.40528 23.625 8.75 23.625ZM23.625 20.125L28.875 23.625V11.375L23.625 14.875V20.125Z" fill="url(#paint0_linear_1_897)"/>
</g>
</g>
<defs>
<linearGradient id="paint0_linear_1_897" x1="17.5" y1="0" x2="17.5" y2="35" gradientUnits="userSpaceOnUse">
<stop stop-color="#6BB1F4"/>
<stop offset="1" stop-color="#3675F3"/>
</linearGradient>
<clipPath id="clip0_1_897">
<rect width="35" height="35" fill="white"/>
</clipPath>
</defs>
</svg>
