<svg width="15" height="12" viewBox="0 0 15 12" fill="none" xmlns="http://www.w3.org/2000/svg">
<g clip-path="url(#clip0_1_875)">
<path d="M7.5 0L15 11.9841H0L7.5 0Z" fill="white"/>
</g>
<defs>
<clipPath id="clip0_1_875">
<rect width="15" height="12" fill="white"/>
</clipPath>
</defs>
</svg>
